…
See how many incidents we have by animal group.

# Method 1
animal_rescue %>% 
  group_by(animal_group_parent) %>% 
  summarise(count = n()) %>% 
  mutate(percent = round(100*count/sum(count),2)) %>% 
  arrange(desc(percent))

## # A tibble: 28 × 3
##    animal_group_parent              count percent
##    <chr>                            <int>   <dbl>
##  1 Cat                               3701   48.2 
##  2 Bird                              1583   20.6 
##  3 Dog                               1202   15.6 
##  4 Fox                                360    4.69
##  5 Unknown - Domestic Animal Or Pet   196    2.55
##  6 Horse                              195    2.54
##  7 Deer                               132    1.72
##  8 Unknown - Wild Animal               90    1.17
##  9 Squirrel                            66    0.86
## 10 Unknown - Heavy Livestock Animal    49    0.64
## # … with 18 more rows

# Method 2
animal_rescue %>% 
  count(animal_group_parent, name="count", sort=TRUE) %>% 
  mutate(percent = round(100*count/sum(count),2))

## # A tibble: 28 × 3
##    animal_group_parent              count percent
##    <chr>                            <int>   <dbl>
##  1 Cat                               3701   48.2 
##  2 Bird                              1583   20.6 
##  3 Dog                               1202   15.6 
##  4 Fox                                360    4.69
##  5 Unknown - Domestic Animal Or Pet   196    2.55
##  6 Horse                              195    2.54
##  7 Deer                               132    1.72
##  8 Unknown - Wild Animal               90    1.17
##  9 Squirrel                            66    0.86
## 10 Unknown - Heavy Livestock Animal    49    0.64
## # … with 18 more rows
…
